{"photos":{"page":1,"pages":31,"perpage":5,"total":"152","photo":[{"id":"6206400436","owner":"34790912@N05","secret":"1d15b3aa99","server":"6162","farm":7,"title":"DSC03367","ispublic":1,"isfriend":0,"isfamily":0},{"id":"6206390832","owner":"34790912@N05","secret":"7a70f93db4","server":"6149","farm":7,"title":"DSC03368","ispublic":1,"isfriend":0,"isfamily":0},{"id":"6077293379","owner":"34790912@N05","secret":"ddea4b9342","server":"6203","farm":7,"title":"IMAG0508","ispublic":1,"isfriend":0,"isfamily":0},{"id":"6077825172","owner":"34790912@N05","secret":"3b9f86a8f9","server":"6090","farm":7,"title":"IMAG0482","ispublic":1,"isfriend":0,"isfamily":0},{"id":"6077823664","owner":"34790912@N05","secret":"7d370cf5bf","server":"6083","farm":7,"title":"IMAG0479","ispublic":1,"isfriend":0,"isfamily":0}]},"stat":"ok"}